<?xml version='1.0' encoding='UTF-8' standalone='no'?>
<!-- Created with Inkscape (http://www.inkscape.org/) -->
<svg xmlns:rdf="http://www.w3.org/1999/02/22-rdf-syntax-ns#" xmlns="http://www.w3.org/2000/svg" xmlns:cc="http://creativecommons.org/ns#" viewBox="0 0 279.40001 215.9" xmlns:inkscape="http://www.inkscape.org/namespaces/inkscape" height="215.89999mm" inkscape:version="0.92.3 (2405546, 2018-03-11)" sodipodi:docname="USLetter_Landscape_blank.svg" xmlns:dc="http://purl.org/dc/elements/1.1/" xmlns:svg="http://www.w3.org/2000/svg" width="279.39999mm" id="svg2" xmlns:sodipodi="http://sodipodi.sourceforge.net/DTD/sodipodi-0.dtd" version="1.1">
 <!-- Working space 10 10 269 205 -->
 <defs id="defs4"/>
 <sodipodi:namedview showgrid="false" bordercolor="#666666" inkscape:showpageshadow="false" units="mm" pagecolor="#ffffff" showguides="true" borderopacity="1.0" inkscape:window-width="1366" inkscape:cy="470.05322" inkscape:current-layer="svg2" inkscape:cx="527.99999" inkscape:pageshadow="2" inkscape:guide-bbox="true" inkscape:window-height="715" inkscape:document-units="mm" inkscape:window-x="0" inkscape:window-maximized="1" inkscape:zoom="0.64460786" id="base" inkscape:pageopacity="0.0" inkscape:window-y="26">
  <sodipodi:guide orientation="0,1" position="196.1368,22.514151" inkscape:locked="false" id="guide4606"/>
  <sodipodi:guide orientation="1,0" position="163.68397,54.764151" inkscape:locked="false" id="guide4608"/>
 </sodipodi:namedview>
 <metadata id="metadata7">
  <rdf:RDF>
   <cc:Work rdf:about="">
    <dc:format>image/svg+xml</dc:format>
    <dc:type rdf:resource="http://purl.org/dc/dcmitype/StillImage"/>
    <dc:title/>
   </cc:Work>
  </rdf:RDF>
 </metadata>
</svg>
